{"_id":{"$oid":"5aca5907ca842d91f4bb4833"},"approved":false,"mobile_no":"+923046001249","businessname":"Rankgrain","password":"827ccb0eea8a706c4c34a16891f84e7b","email":"umairghufran11@gmail.com","last_name":"Umair Ghufran","first_name":"Muhammad ","__v":0}
{"_id":{"$oid":"5aca5d81ca842d91f4bb4834"},"approved":true,"mobile_no":"03016001249","businessname":"Jhonsmith","password":"fc6b5abfc2e5581514c4c03ffedd46ac","email":"jhonsmith@gmail.com","last_name":"smith","first_name":"jhon","__v":0}
{"_id":{"$oid":"5acb81ca6c30916a8c1f6ad6"},"approved":true,"mobile_no":"+923066001249","businessname":"zeeshsan","password":"827ccb0eea8a706c4c34a16891f84e7b","email":"zeeshan@gmail.com","last_name":"Zesshan","first_name":"Muhammad ","__v":0}
{"_id":{"$oid":"5ace2d10d6fd8e4e884ee5fe"},"approved":true,"mobile_no":"+923056001249","businessname":"Uzair Business ","password":"827ccb0eea8a706c4c34a16891f84e7b","email":"uzair@gmail.com","last_name":"Islamabad","first_name":"Uzair ","__v":0}
{"_id":{"$oid":"5ace2e8fd6fd8e4e884ee5ff"},"approved":true,"mobile_no":"+923086001249","businessname":"Lisa Footges ","password":"827ccb0eea8a706c4c34a16891f84e7b","email":"Lisa@gmail.com","last_name":"Michel ","first_name":"Lisa ","__v":0}
{"_id":{"$oid":"5ace2fbcd6fd8e4e884ee609"},"approved":true,"mobile_no":"+923046001249","businessname":"umair ","password":"827ccb0eea8a706c4c34a16891f84e7b","email":"umair@gmail.com","last_name":"ghufran","first_name":"umair ","__v":0}
